motion-data-book - 1 dddr: Three-Dimensional Vector Operations in R
…
1.1 Tidy

Here’s a common example of 3D data in a table of some sort:

messy_vectors

# A tibble: 300 × 5
   sensor_x sensor_y sensor_z temperature   time
      <dbl>    <dbl>    <dbl>       <dbl>  <dbl>
 1     5     0          0            6.26 0.0333
 2     4.98  0.00165    0.314        4.66 0.0667
 3     4.94  0.00658    0.626        6.31 0.1   
 4     4.88  0.0147     0.934        6.24 0.133 
 5     4.80  0.0260     1.24         5.37 0.167 
 6     4.71  0.0403     1.53         3.41 0.2   
 7     4.59  0.0575     1.82         4.01 0.233 
 8     4.46  0.0774     2.10         4.64 0.267 
 9     4.31  0.0999     2.38         4.91 0.3   
10     4.14  0.125      2.64         7.31 0.333 
# ℹ 290 more rows

Let’s calculate the speed of the sensor.

messy_vectors %>%
  mutate(
    delta_t = time - lag(time),
    velocity_x = (sensor_x - lag(sensor_x)) / delta_t,
    velocity_y = (sensor_y - lag(sensor_y)) / delta_t,
    velocity_z = (sensor_z - lag(sensor_x)) / delta_t,
    speed = sqrt(velocity_x^2 + velocity_y^2 + velocity_z^2)
  ) %>% select(-starts_with("velocity"))

# A tibble: 300 × 7
   sensor_x sensor_y sensor_z temperature   time delta_t speed
      <dbl>    <dbl>    <dbl>       <dbl>  <dbl>   <dbl> <dbl>
 1     5     0          0            6.26 0.0333 NA       NA  
 2     4.98  0.00165    0.314        4.66 0.0667  0.0333 141. 
 3     4.94  0.00658    0.626        6.31 0.1     0.0333 131. 
 4     4.88  0.0147     0.934        6.24 0.133   0.0333 120. 
 5     4.80  0.0260     1.24         5.37 0.167   0.0333 109. 
 6     4.71  0.0403     1.53         3.41 0.2     0.0333  98.1
 7     4.59  0.0575     1.82         4.01 0.233   0.0333  86.6
 8     4.46  0.0774     2.10         4.64 0.267   0.0333  74.7
 9     4.31  0.0999     2.38         4.91 0.3     0.0333  62.6
10     4.14  0.125      2.64         7.31 0.333   0.0333  50.4
# ℹ 290 more rows
…
We think of position (or velocity) not as three variables, but as one variable represented by a triple of three numbers. Therefore, with tidy data, it should be only one column. This explains why working with XYZ data separately can be so tedious. This can be done with the vector3 function.

tidy_vectors <- messy_vectors %>%
  mutate(
    sensor = vector3(x = sensor_x, y = sensor_y, z = sensor_z) #<<
  ) %>%
  select(sensor, time, temperature)

tidy_vectors

# A tibble: 300 × 3
                   sensor   time temperature
                   <vct3>  <dbl>       <dbl>
 1 (5   , 0      , 0    ) 0.0333        6.26
 2 (4.98, 0.00165, 0.314) 0.0667        4.66
 3 (4.94, 0.00658, 0.626) 0.1           6.31
 4 (4.88, 0.0147 , 0.934) 0.133         6.24
 5 (4.80, 0.0260 , 1.24 ) 0.167         5.37
 6 (4.71, 0.0403 , 1.53 ) 0.2           3.41
 7 (4.59, 0.0575 , 1.82 ) 0.233         4.01
 8 (4.46, 0.0774 , 2.10 ) 0.267         4.64
 9 (4.31, 0.0999 , 2.38 ) 0.3           4.91
10 (4.14, 0.125  , 2.64 ) 0.333         7.31
# ℹ 290 more rows
…
